NibblerFinal/uP_tb.vcd
$date
	Sat Nov 21 15:29:50 2020
$end
$version
	Icarus Verilog
$end
$timescale
	1ps
$end
$scope module testbench $end
$var wire 4 ! data_bus [3:0] $end
$var wire 1 " z_flag $end
$var wire 8 # program_byte [7:0] $end
$var wire 1 $ phase $end
$var wire 4 % oprnd [3:0] $end
$var wire 4 & instr [3:0] $end
$var wire 1 ' c_flag $end
$var wire 12 ( address_RAM [11:0] $end
$var wire 4 ) accu [3:0] $end
$var wire 12 * PC [11:0] $end
$var wire 4 + FF_out [3:0] $end
$var reg 1 , clock $end
$var reg 4 - pushbuttons [3:0] $end
$var reg 1 . reset $end
$var integer 32 / immediateDelay [31:0] $end
$var integer 32 0 jumpDelay [31:0] $end
$var integer 32 1 memoryDelay [31:0] $end
$var integer 32 2 nota [31:0] $end
$scope module uPmodule $end
$var wire 1 , clock $end
$var wire 4 3 data_bus [3:0] $end
$var wire 4 4 pushbuttons [3:0] $end
$var wire 1 . reset $end
$var wire 1 " z_flag $end
$var wire 1 5 weRAM $end
$var wire 8 6 program_byte [7:0] $end
$var wire 1 $ phase $end
$var wire 4 7 oprnd [3:0] $end
$var wire 1 8 oeOprnd $end
$var wire 1 9 oeIN $end
$var wire 1 : oeALU $end
$var wire 1 ; loadPC $end
$var wire 1 < loadOut $end
$var wire 1 = loadFlags $end
$var wire 1 > loadA $end
$var wire 4 ? instr [3:0] $end
$var wire 1 @ incPC $end
$var wire 8 A fetch_out [7:0] $end
$var wire 13 B d_out [12:0] $end
$var wire 1 C csRAM $end
$var wire 1 ' c_flag $end
$var wire 12 D address_RAM [11:0] $end
$var wire 4 E accu [3:0] $end
$var wire 1 F Zeta $end
$var wire 3 G S [2:0] $end
$var wire 12 H PC [11:0] $end
$var wire 4 I FF_out [3:0] $end
$var wire 1 J C $end
$var wire 4 K ALU_out [3:0] $end
$scope module accumulator $end
$var wire 1 , clk $end
$var wire 1 > enable $end
$var wire 1 . reset $end
$var wire 4 L A_in [3:0] $end
$var reg 4 M A_out [3:0] $end
$upscope $end
$scope module alu $end
$var wire 4 N A [3:0] $end
$var wire 4 O B [3:0] $end
$var wire 3 P S [2:0] $end
$var reg 1 J C $end
$var reg 4 Q Y_out [3:0] $end
$var reg 1 F Zeta $end
$upscope $end
$scope module buffer_alu $end
$var wire 1 : enable $end
$var wire 4 R in [3:0] $end
$var reg 4 S out [3:0] $end
$upscope $end
$scope module buffer_fetch $end
$var wire 1 8 enable $end
$var wire 4 T in [3:0] $end
$var reg 4 U out [3:0] $end
$upscope $end
$scope module buffer_in $end
$var wire 1 9 enable $end
$var wire 4 V in [3:0] $end
$var reg 4 W out [3:0] $end
$upscope $end
$scope module decoder $end
$var wire 4 X i [3:0] $end
$var wire 13 Y out [12:0] $end
$var wire 1 $ phase $end
$var wire 1 " Zeta $end
$var wire 1 ' C $end
$var reg 13 Z carry [12:0] $end
$upscope $end
$scope module fetch $end
$var wire 1 , clk $end
$var wire 1 [ enable $end
$var wire 1 . reset $end
$var wire 8 \ D_in [7:0] $end
$var reg 8 ] D_out [7:0] $end
$upscope $end
$scope module ffout $end
$var wire 4 ^ A_in [3:0] $end
$var wire 1 , clk $end
$var wire 1 < enable $end
$var wire 1 . reset $end
$var reg 4 _ A_out [3:0] $end
$upscope $end
$scope module flags_module $end
$var wire 1 J C $end
$var wire 1 F Zeta $end
$var wire 1 , clk $end
$var wire 1 = enable $end
$var wire 1 . reset $end
$var reg 1 ' C_out $end
$var reg 1 " Z_out $end
$upscope $end
$scope module phase_module $end
$var wire 1 , clk $end
$var wire 1 . reset $end
$var reg 1 $ out $end
$upscope $end
$scope module program_counter $end
$var wire 1 , clk $end
$var wire 1 @ enable $end
$var wire 12 ` in [11:0] $end
$var wire 1 ; load $end
$var wire 1 . reset $end
$var reg 12 a C [11:0] $end
$upscope $end
$scope module ram $end
$var wire 12 b address [11:0] $end
$var wire 1 C csRam $end
$var wire 4 c salida [3:0] $end
$var wire 1 5 weRam $end
$var reg 4 d data_out [3:0] $end
$upscope $end
$scope module rom $end
$var wire 12 e address [11:0] $end
$var wire 8 f dat [7:0] $end
$upscope $end
$upscope $end
$upscope $end
$enddefinitions $end
#0
$dumpvars
b1001111 f
b0 e
bx d
b0 c
b1001111 b
b0 a
b1001111 `
b0 _
b0 ^
b0 ]
b1001111 \
1[
b1000000001000 Z
b1000000001000 Y
b0 X
bz W
b110 V
bz U
b0 T
b0 S
b0 R
b0 Q
b0 P
b0 O
b0 N
b0 M
b0 L
b0 K
0J
b0 I
b0 H
b0 G
1F
b0 E
b1001111 D
0C
b1000000001000 B
b0 A
1@
b0 ?
0>
0=
0<
0;
1:
09
08
b0 7
b1001111 6
05
b110 4
b0 3
b0 2
b100010100 1
b1010010000 0
b10000 /
0.
b110 -
0,
b0 +
b0 *
b0 )
b1001111 (
0'
b0 &
b0 %
0$
b1001111 #
0"
b0 !
$end
#2
1.
#3
0.
#5
0F
b1111 K
b1111 L
b1111 Q
b1111 R
b1111 U
b1111 !
b1111 3
b1111 O
b1111 ^
b1111 c
bz S
18
0:
b10 G
b10 P
1=
1>
0@
0[
b11010000010 B
b11010000010 Y
b11010000010 Z
b1111 %
b1111 7
b1111 T
b100 &
b100 ?
b100 X
1$
b111111011111 (
b111111011111 D
b111111011111 `
b111111011111 b
b11011111 #
b11011111 6
b11011111 \
b11011111 f
b1 *
b1 H
b1 a
b1 e
b1001111 A
b1001111 ]
1,
#10
0,
#15
bz U
b1111 S
08
1:
b0 G
b0 P
0=
0>
1@
1[
b1000000001000 B
b1000000001000 Y
b1000000001000 Z
b1111 )
b1111 E
b1111 M
b1111 N
0$
1,
#16
b1000110 2
#20
0,
#25
1<
0@
0[
b1001 B
b1001 Y
b1001 Z
b1101 &
b1101 ?
b1101 X
1$
b111101010001 (
b111101010001 D
b111101010001 `
b111101010001 b
b1010001 #
b1010001 6
b1010001 \
b1010001 f
b10 *
b10 H
b10 a
b10 e
b11011111 A
b11011111 ]
1,
#30
0,
#35
0<
1@
1[
b1000000001000 B
b1000000001000 Y
b1000000001000 Z
b1111 +
b1111 I
b1111 _
0$
1,
#36
b1100111 2
#40
0,
#45
b110 K
b110 L
b110 Q
b110 R
b110 W
b110 !
b110 3
b110 O
b110 ^
b110 c
bz S
19
0:
b10 G
b10 P
1=
1>
0@
0[
b11010000100 B
b11010000100 Y
b11010000100 Z
b1 %
b1 7
b1 T
b101 &
b101 ?
b101 X
1$
b101000000 (
b101000000 D
b101000000 `
b101000000 b
b1000000 #
b1000000 6
b1000000 \
b1000000 f
b11 *
b11 H
b11 a
b11 e
b1010001 A
b1010001 ]
1,
#50
0,
#55
bz W
b110 S
09
1:
b0 G
b0 P
0=
0>
1@
1[
b1000000001000 B
b1000000001000 Y
b1000000001000 Z
b110 )
b110 E
b110 M
b110 N
0$
1,
#56
b10001000 2
#60
0,
#65
1F
b0 K
b0 L
b0 Q
b0 R
b0 U
b0 !
b0 3
b0 O
b0 ^
b0 c
bz S
18
0:
b10 G
b10 P
1=
1>
0@
0[
b11010000010 B
b11010000010 Y
b11010000010 Z
b0 %
b0 7
b0 T
b100 &
b100 ?
b100 X
1$
b1001111 (
b1001111 D
b1001111 `
b1001111 b
b1001111 #
b1001111 6
b1001111 \
b1001111 f
b100 *
b100 H
b100 a
b100 e
b1000000 A
b1000000 ]
1,
#70
0,
#75
bz U
b0 S
08
1:
b0 G
b0 P
0=
0>
1@
1[
b1000000001000 B
b1000000001000 Y
b1000000001000 Z
1"
b0 )
b0 E
b0 M
b0 N
0$
1,
#80
0,
#85
0F
b1111 K
b1111 L
b1111 Q
b1111 R
b1111 U
b1111 !
b1111 3
b1111 O
b1111 ^
b1111 c
bz S
18
0:
b10 G
b10 P
1=
1>
0@
0[
b11010000010 B
b11010000010 Y
b11010000010 Z
b1111 %
b1111 7
b1111 T
1$
b111110101010 (
b111110101010 D
b111110101010 `
b111110101010 b
b10101010 #
b10101010 6
b10101010 \
b10101010 f
b101 *
b101 H
b101 a
b101 e
b1001111 A
b1001111 ]
1,
#90
0,
#95
bz U
b1111 S
08
1:
b0 G
b0 P
0=
0>
1@
1[
b1000000001000 B
b1000000001000 Y
b1000000001000 Z
0"
b1111 )
b1111 E
b1111 M
b1111 N
0$
1,
#100
0,
#105
b1010 U
b1010 !
b1010 3
b1010 O
b1010 ^
b1010 c
bz S
1J
b1001 K
b1001 L
b1001 Q
b1001 R
18
0:
b11 G
b11 P
1=
1>
0@
0[
b11011000010 B
b11011000010 Y
b11011000010 Z
b1010 %
b1010 7
b1010 T
b1010 &
b1010 ?
b1010 X
1$
b101000101000 (
b101000101000 D
b101000101000 `
b101000101000 b
b101000 #
b101000 6
b101000 \
b101000 f
b110 *
b110 H
b110 a
b110 e
b10101010 A
b10101010 ]
1,
#110
0,
#115
bz U
b1001 !
b1001 3
b1001 O
b1001 ^
b1001 c
b1001 S
0J
b1001 K
b1001 L
b1001 Q
b1001 R
08
1:
b0 G
b0 P
0=
0>
1@
1[
b1000000001000 B
b1000000001000 Y
b1000000001000 Z
1'
b1001 )
b1001 E
b1001 M
b1001 N
0$
1,
#116
b10101001 2
#120
0,
#125
0F
b1000 U
b1000 !
b1000 3
b1000 O
b1000 ^
b1000 c
bz S
b1 K
b1 L
b1 Q
b1 R
18
0:
b1 G
b1 P
1=
0@
0[
b1001000010 B
b1001000010 Y
b1001000010 Z
b1000 %
b1000 7
b1000 T
b10 &
b10 ?
b10 X
1$
b100001001010 (
b100001001010 D
b100001001010 `
b100001001010 b
b1001010 #
b1001010 6
b1001010 \
b1001010 f
b111 *
b111 H
b111 a
b111 e
b101000 A
b101000 ]
1,
#130
0,
#135
bz U
b1001 !
b1001 3
b1001 O
b1001 ^
b1001 c
b1001 S
b1001 K
b1001 L
b1001 Q
b1001 R
08
1:
b0 G
b0 P
0=
1@
1[
b1000000001000 B
b1000000001000 Y
b1000000001000 Z
0'
0$
1,
#136
b11001010 2
#140
0,
#145
b1010 K
b1010 L
b1010 Q
b1010 R
b1010 U
b1010 !
b1010 3
b1010 O
b1010 ^
b1010 c
bz S
18
0:
b10 G
b10 P
1=
1>
0@
0[
b11010000010 B
b11010000010 Y
b11010000010 Z
b1010 %
b1010 7
b1010 T
b100 &
b100 ?
b100 X
1$
b101000101100 (
b101000101100 D
b101000101100 `
b101000101100 b
b101100 #
b101100 6
b101100 \
b101100 f
b1000 *
b1000 H
b1000 a
b1000 e
b1001010 A
b1001010 ]
1,
#150
0,
#155
bz U
b1010 S
08
1:
b0 G
b0 P
0=
0>
1@
1[
b1000000001000 B
b1000000001000 Y
b1000000001000 Z
b1010 )
b1010 E
b1010 M
b1010 N
0$
1,
#160
0,
#165
1J
0F
b1100 U
b1100 !
b1100 3
b1100 O
b1100 ^
b1100 c
bz S
b1110 K
b1110 L
b1110 Q
b1110 R
18
0:
b1 G
b1 P
1=
0@
0[
b1001000010 B
b1001000010 Y
b1001000010 Z
b1100 %
b1100 7
b1100 T
b10 &
b10 ?
b10 X
1$
b110010100001 (
b110010100001 D
b110010100001 `
b110010100001 b
b10100001 #
b10100001 6
b10100001 \
b10100001 f
b1001 *
b1001 H
b1001 a
b1001 e
b101100 A
b101100 ]
1,
#170
0,
#175
bz U
b1010 !
b1010 3
b1010 O
b1010 ^
b1010 c
b1010 S
0J
b1010 K
b1010 L
b1010 Q
b1010 R
08
1:
b0 G
b0 P
0=
1@
1[
b1000000001000 B
b1000000001000 Y
b1000000001000 Z
1'
0$
1,
#176
b11101011 2
#180
0,
#185
b1 U
b1 !
b1 3
b1 O
b1 ^
b1 c
bz S
0J
b1011 K
b1011 L
b1011 Q
b1011 R
18
0:
b11 G
b11 P
1=
1>
0@
0[
b11011000010 B
b11011000010 Y
b11011000010 Z
b1 %
b1 7
b1 T
b1010 &
b1010 ?
b1010 X
1$
b111101011 (
b111101011 D
b111101011 `
b111101011 b
b11101011 #
b11101011 6
b11101011 \
b11101011 f
b1010 *
b1010 H
b1010 a
b1010 e
b10100001 A
b10100001 ]
1,
#190
0,
#195
bz U
b1011 !
b1011 3
b1011 O
b1011 ^
b1011 c
b1011 S
b1011 K
b1011 L
b1011 Q
b1011 R
08
1:
b0 G
b0 P
0=
0>
1@
1[
b1000000001000 B
b1000000001000 Y
b1000000001000 Z
0'
b1011 )
b1011 E
b1011 M
b1011 N
0$
1,
#196
b100001100 2
#200
0,
#205
b1011 U
b1011 !
b1011 3
b1011 O
b1011 ^
b1011 c
bz S
b100 K
b100 L
b100 Q
b100 R
18
0:
b100 G
b100 P
1=
1>
0@
0[
b11100000010 B
b11100000010 Y
b11100000010 Z
b1011 %
b1011 7
b1011 T
b1110 &
b1110 ?
b1110 X
1$
b101111010000 (
b101111010000 D
b101111010000 `
b101111010000 b
b11010000 #
b11010000 6
b11010000 \
b11010000 f
b1011 *
b1011 H
b1011 a
b1011 e
b11101011 A
b11101011 ]
1,
#210
0,
#215
bz U
b100 !
b100 3
b100 O
b100 ^
b100 c
b100 S
b100 K
b100 L
b100 Q
b100 R
08
1:
b0 G
b0 P
0=
0>
1@
1[
b1000000001000 B
b1000000001000 Y
b1000000001000 Z
b100 )
b100 E
b100 M
b100 N
0$
1,
#216
b101001110 2
#220
0,
#225
1<
0@
0[
b1001 B
b1001 Y
b1001 Z
b0 %
b0 7
b0 T
b1101 &
b1101 ?
b1101 X
1$
b1010000 (
b1010000 D
b1010000 `
b1010000 b
b1010000 #
b1010000 6
b1010000 \
b1010000 f
b1100 *
b1100 H
b1100 a
b1100 e
b11010000 A
b11010000 ]
1,
#230
0,
#235
0<
1@
1[
b1000000001000 B
b1000000001000 Y
b1000000001000 Z
b100 +
b100 I
b100 _
0$
1,
#236
b1110 -
b1110 4
b1110 V
b101101111 2
#240
0,
#245
b1110 K
b1110 L
b1110 Q
b1110 R
b1110 W
b1110 !
b1110 3
b1110 O
b1110 ^
b1110 c
bz S
19
0:
b10 G
b10 P
1=
1>
0@
0[
b11010000100 B
b11010000100 Y
b11010000100 Z
b101 &
b101 ?
b101 X
1$
b1110000 (
b1110000 D
b1110000 `
b1110000 b
b1110000 #
b1110000 6
b1110000 \
b1110000 f
b1101 *
b1101 H
b1101 a
b1101 e
b1010000 A
b1010000 ]
1,
#250
0,
#255
bz W
b1110 S
09
1:
b0 G
b0 P
0=
0>
1@
1[
b1000000001000 B
b1000000001000 Y
b1000000001000 Z
b1110 )
b1110 E
b1110 M
b1110 N
0$
1,
#256
b110010000 2
#260
0,
#265
15
1C
0[
b1000000111000 B
b1000000111000 Y
b1000000111000 Z
b111 &
b111 ?
b111 X
1$
b0 (
b0 D
b0 `
b0 b
b0 #
b0 6
b0 \
b0 f
b1110 *
b1110 H
b1110 a
b1110 e
b1110000 A
b1110000 ]
1,
#270
0,
#275
05
0C
1[
b1000000001000 B
b1000000001000 Y
b1000000001000 Z
b1001111 (
b1001111 D
b1001111 `
b1001111 b
b1001111 #
b1001111 6
b1001111 \
b1001111 f
b1111 *
b1111 H
b1111 a
b1111 e
0$
1,
#280
0,
#285
b1111 K
b1111 L
b1111 Q
b1111 R
b1111 U
b1111 !
b1111 3
b1111 O
b1111 ^
b1111 c
bz S
18
0:
b10 G
b10 P
1=
1>
0@
0[
b11010000010 B
b11010000010 Y
b11010000010 Z
b1111 %
b1111 7
b1111 T
b100 &
b100 ?
b100 X
1$
b111101110001 (
b111101110001 D
b111101110001 `
b111101110001 b
b1110001 #
b1110001 6
b1110001 \
b1110001 f
b10000 *
b10000 H
b10000 a
b10000 e
b1001111 A
b1001111 ]
1,
#290
0,
#295
bz U
b1111 S
08
1:
b0 G
b0 P
0=
0>
1@
1[
b1000000001000 B
b1000000001000 Y
b1000000001000 Z
b1111 )
b1111 E
b1111 M
b1111 N
0$
1,
#300
0,
#305
15
1C
0[
b1000000111000 B
b1000000111000 Y
b1000000111000 Z
b1 %
b1 7
b1 T
b111 &
b111 ?
b111 X
1$
b100010001 (
b100010001 D
b100010001 `
b100010001 b
b10001 #
b10001 6
b10001 \
b10001 f
b10001 *
b10001 H
b10001 a
b10001 e
b1110001 A
b1110001 ]
1,
#310
0,
#315
05
0C
1[
b1000000001000 B
b1000000001000 Y
b1000000001000 Z
b101001010 (
b101001010 D
b101001010 `
b101001010 b
b1001010 #
b1001010 6
b1001010 \
b1001010 f
b10010 *
b10010 H
b10010 a
b10010 e
0$
1,
#320
0,
#325
b1010 K
b1010 L
b1010 Q
b1010 R
b1010 U
b1010 !
b1010 3
b1010 O
b1010 ^
b1010 c
bz S
18
0:
b10 G
b10 P
1=
1>
0@
0[
b11010000010 B
b11010000010 Y
b11010000010 Z
b1010 %
b1010 7
b1010 T
b100 &
b100 ?
b100 X
1$
b101001110010 (
b101001110010 D
b101001110010 `
b101001110010 b
b1110010 #
b1110010 6
b1110010 \
b1110010 f
b10011 *
b10011 H
b10011 a
b10011 e
b1001010 A
b1001010 ]
1,
#330
0,
#335
bz U
b1010 S
08
1:
b0 G
b0 P
0=
0>
1@
1[
b1000000001000 B
b1000000001000 Y
b1000000001000 Z
b1010 )
b1010 E
b1010 M
b1010 N
0$
1,
#340
0,
#345
15
1C
0[
b1000000111000 B
b1000000111000 Y
b1000000111000 Z
b10 %
b10 7
b10 T
b111 &
b111 ?
b111 X
1$
b1000100010 (
b1000100010 D
b1000100010 `
b1000100010 b
b100010 #
b100010 6
b100010 \
b100010 f
b10100 *
b10100 H
b10100 a
b10100 e
b1110010 A
b1110010 ]
1,
#350
0,
#355
05
0C
1[
b1000000001000 B
b1000000001000 Y
b1000000001000 Z
b1001000001 (
b1001000001 D
b1001000001 `
b1001000001 b
b1000001 #
b1000001 6
b1000001 \
b1000001 f
b10101 *
b10101 H
b10101 a
b10101 e
0$
1,
#360
0,
#365
b1 K
b1 L
b1 Q
b1 R
b1 U
b1 !
b1 3
b1 O
b1 ^
b1 c
bz S
18
0:
b10 G
b10 P
1=
1>
0@
0[
b11010000010 B
b11010000010 Y
b11010000010 Z
b1 %
b1 7
b1 T
b100 &
b100 ?
b100 X
1$
b101110011 (
b101110011 D
b101110011 `
b101110011 b
b1110011 #
b1110011 6
b1110011 \
b1110011 f
b10110 *
b10110 H
b10110 a
b10110 e
b1000001 A
b1000001 ]
1,
#370
0,
#375
bz U
b1 S
08
1:
b0 G
b0 P
0=
0>
1@
1[
b1000000001000 B
b1000000001000 Y
b1000000001000 Z
b1 )
b1 E
b1 M
b1 N
0$
1,
#380
0,
#385
15
1C
0[
b1000000111000 B
b1000000111000 Y
b1000000111000 Z
b11 %
b11 7
b11 T
b111 &
b111 ?
b111 X
1$
b1100110011 (
b1100110011 D
b1100110011 `
b1100110011 b
b110011 #
b110011 6
b110011 \
b110011 f
b10111 *
b10111 H
b10111 a
b10111 e
b1110011 A
b1110011 ]
1,
#390
0,
#395
05
0C
1[
b1000000001000 B
b1000000001000 Y
b1000000001000 Z
b1101100000 (
b1101100000 D
b1101100000 `
b1101100000 b
b1100000 #
b1100000 6
b1100000 \
b1100000 f
b11000 *
b11000 H
b11000 a
b11000 e
0$
1,
#400
0,
#405
0F
b1110 K
b1110 L
b1110 Q
b1110 R
bz S
b1110 d
b1110 !
b1110 3
b1110 O
b1110 ^
b1110 c
0:
1C
b10 G
b10 P
1=
1>
0[
b1011010100000 B
b1011010100000 Y
b1011010100000 Z
b0 %
b0 7
b0 T
b110 &
b110 ?
b110 X
1$
b0 (
b0 D
b0 `
b0 b
b0 #
b0 6
b0 \
b0 f
b11001 *
b11001 H
b11001 a
b11001 e
b1100000 A
b1100000 ]
1,
#410
0,
#415
b1110 S
bx d
b1110 !
b1110 3
b1110 O
b1110 ^
b1110 c
1:
0C
b0 G
b0 P
0=
0>
1[
b1000000001000 B
b1000000001000 Y
b1000000001000 Z
b1100001 (
b1100001 D
b1100001 `
b1100001 b
b1100001 #
b1100001 6
b1100001 \
b1100001 f
b11010 *
b11010 H
b11010 a
b11010 e
b1110 )
b1110 E
b1110 M
b1110 N
0$
1,
#420
0,
#425
0F
b1111 K
b1111 L
b1111 Q
b1111 R
bz S
b1111 d
b1111 !
b1111 3
b1111 O
b1111 ^
b1111 c
0:
1C
b10 G
b10 P
1=
1>
0[
b1011010100000 B
b1011010100000 Y
b1011010100000 Z
b1 %
b1 7
b1 T
1$
b100010001 (
b100010001 D
b100010001 `
b100010001 b
b10001 #
b10001 6
b10001 \
b10001 f
b11011 *
b11011 H
b11011 a
b11011 e
b1100001 A
b1100001 ]
1,
#430
0,
#435
b1111 S
bx d
b1111 !
b1111 3
b1111 O
b1111 ^
b1111 c
1:
0C
b0 G
b0 P
0=
0>
1[
b1000000001000 B
b1000000001000 Y
b1000000001000 Z
b101100010 (
b101100010 D
b101100010 `
b101100010 b
b1100010 #
b1100010 6
b1100010 \
b1100010 f
b11100 *
b11100 H
b11100 a
b11100 e
b1111 )
b1111 E
b1111 M
b1111 N
0$
1,
#440
0,
#445
0F
b1010 K
b1010 L
b1010 Q
b1010 R
bz S
b1010 d
b1010 !
b1010 3
b1010 O
b1010 ^
b1010 c
0:
1C
b10 G
b10 P
1=
1>
0[
b1011010100000 B
b1011010100000 Y
b1011010100000 Z
b10 %
b10 7
b10 T
1$
b1000100010 (
b1000100010 D
b1000100010 `
b1000100010 b
b100010 #
b100010 6
b100010 \
b100010 f
b11101 *
b11101 H
b11101 a
b11101 e
b1100010 A
b1100010 ]
1,
#450
0,
#455
b1010 S
bx d
b1010 !
b1010 3
b1010 O
b1010 ^
b1010 c
1:
0C
b0 G
b0 P
0=
0>
1[
b1000000001000 B
b1000000001000 Y
b1000000001000 Z
b1001100011 (
b1001100011 D
b1001100011 `
b1001100011 b
b1100011 #
b1100011 6
b1100011 \
b1100011 f
b11110 *
b11110 H
b11110 a
b11110 e
b1010 )
b1010 E
b1010 M
b1010 N
0$
1,
#460
0,
#465
0F
b1 K
b1 L
b1 Q
b1 R
bz S
b1 d
b1 !
b1 3
b1 O
b1 ^
b1 c
0:
1C
b10 G
b10 P
1=
1>
0[
b1011010100000 B
b1011010100000 Y
b1011010100000 Z
b11 %
b11 7
b11 T
1$
b1100110011 (
b1100110011 D
b1100110011 `
b1100110011 b
b110011 #
b110011 6
b110011 \
b110011 f
b11111 *
b11111 H
b11111 a
b11111 e
b1100011 A
b1100011 ]
1,
#470
0,
#475
b1 S
bx d
b1 !
b1 3
b1 O
b1 ^
b1 c
1:
0C
b0 G
b0 P
0=
0>
1[
b1000000001000 B
b1000000001000 Y
b1000000001000 Z
b1101001010 (
b1101001010 D
b1101001010 `
b1101001010 b
b1001010 #
b1001010 6
b1001010 \
b1001010 f
b100000 *
b100000 H
b100000 a
b100000 e
b1 )
b1 E
b1 M
b1 N
0$
1,
#476
b111100000 2
#480
0,
#485
b1010 K
b1010 L
b1010 Q
b1010 R
b1010 U
b1010 !
b1010 3
b1010 O
b1010 ^
b1010 c
bz S
18
0:
b10 G
b10 P
1=
1>
0@
0[
b11010000010 B
b11010000010 Y
b11010000010 Z
b1010 %
b1010 7
b1010 T
b100 &
b100 ?
b100 X
1$
b101011110010 (
b101011110010 D
b101011110010 `
b101011110010 b
b11110010 #
b11110010 6
b11110010 \
b11110010 f
b100001 *
b100001 H
b100001 a
b100001 e
b1001010 A
b1001010 ]
1,
#490
0,
#495
bz U
b1010 S
08
1:
b0 G
b0 P
0=
0>
1@
1[
b1000000001000 B
b1000000001000 Y
b1000000001000 Z
b1010 )
b1010 E
b1010 M
b1010 N
0$
1,
#500
0,
#505
bz S
b1010 d
b101 K
b101 L
b101 Q
b101 R
b1010 !
b1010 3
b1010 O
b1010 ^
b1010 c
0:
1C
b100 G
b100 P
1=
1>
0[
b1011100100000 B
b1011100100000 Y
b1011100100000 Z
b10 %
b10 7
b10 T
b1111 &
b1111 ?
b1111 X
1$
b1000100010 (
b1000100010 D
b1000100010 `
b1000100010 b
b100010 #
b100010 6
b100010 \
b100010 f
b100010 *
b100010 H
b100010 a
b100010 e
b11110010 A
b11110010 ]
1,
#510
0,
#515
b101 S
bx d
b101 K
b101 L
b101 Q
b101 R
b101 !
b101 3
b101 O
b101 ^
b101 c
1:
0C
b0 G
b0 P
0=
0>
1[
b1000000001000 B
b1000000001000 Y
b1000000001000 Z
b1001001111 (
b1001001111 D
b1001001111 `
b1001001111 b
b1001111 #
b1001111 6
b1001111 \
b1001111 f
b100011 *
b100011 H
b100011 a
b100011 e
b101 )
b101 E
b101 M
b101 N
0$
1,
#516
b1000001000 2
#520
0,
#525
b1111 K
b1111 L
b1111 Q
b1111 R
b1111 U
b1111 !
b1111 3
b1111 O
b1111 ^
b1111 c
bz S
18
0:
b10 G
b10 P
1=
1>
0@
0[
b11010000010 B
b11010000010 Y
b11010000010 Z
b1111 %
b1111 7
b1111 T
b100 &
b100 ?
b100 X
1$
b111110110011 (
b111110110011 D
b111110110011 `
b111110110011 b
b10110011 #
b10110011 6
b10110011 \
b10110011 f
b100100 *
b100100 H
b100100 a
b100100 e
b1001111 A
b1001111 ]
1,
#530
0,
#535
bz U
b1111 S
08
1:
b0 G
b0 P
0=
0>
1@
1[
b1000000001000 B
b1000000001000 Y
b1000000001000 Z
b1111 )
b1111 E
b1111 M
b1111 N
0$
1,
#540
0,
#545
1F
bz S
b1 d
1J
b0 K
b0 L
b0 Q
b0 R
b1 !
b1 3
b1 O
b1 ^
b1 c
0:
1C
b11 G
b11 P
1=
1>
0[
b1011011100000 B
b1011011100000 Y
b1011011100000 Z
b11 %
b11 7
b11 T
b1011 &
b1011 ?
b1011 X
1$
b1100110011 (
b1100110011 D
b1100110011 `
b1100110011 b
b110011 #
b110011 6
b110011 \
b110011 f
b100101 *
b100101 H
b100101 a
b100101 e
b10110011 A
b10110011 ]
1,
#550
0,
#555
b0 S
bx d
0J
b0 K
b0 L
b0 Q
b0 R
b0 !
b0 3
b0 O
b0 ^
b0 c
1:
0C
b0 G
b0 P
0=
0>
1[
b1000000001000 B
b1000000001000 Y
b1000000001000 Z
1"
1'
b1101001000 (
b1101001000 D
b1101001000 `
b1101001000 b
b1001000 #
b1001000 6
b1001000 \
b1001000 f
b100110 *
b100110 H
b100110 a
b100110 e
b0 )
b0 E
b0 M
b0 N
0$
1,
#556
b1000110000 2
#560
0,
#565
0F
b1000 K
b1000 L
b1000 Q
b1000 R
b1000 U
b1000 !
b1000 3
b1000 O
b1000 ^
b1000 c
bz S
18
0:
b10 G
b10 P
1=
1>
0@
0[
b11010000010 B
b11010000010 Y
b11010000010 Z
b1000 %
b1000 7
b1000 T
b100 &
b100 ?
b100 X
1$
b100000110010 (
b100000110010 D
b100000110010 `
b100000110010 b
b110010 #
b110010 6
b110010 \
b110010 f
b100111 *
b100111 H
b100111 a
b100111 e
b1001000 A
b1001000 ]
1,
#570
0,
#575
bz U
b1000 S
08
1:
b0 G
b0 P
0=
0>
1@
1[
b1000000001000 B
b1000000001000 Y
b1000000001000 Z
0"
0'
b1000 )
b1000 E
b1000 M
b1000 N
0$
1,
#580
0,
#585
0F
1J
bz S
b1010 d
b1110 K
b1110 L
b1110 Q
b1110 R
b1010 !
b1010 3
b1010 O
b1010 ^
b1010 c
0:
1C
b1 G
b1 P
1=
0[
b1001001100000 B
b1001001100000 Y
b1001001100000 Z
b10 %
b10 7
b10 T
b11 &
b11 ?
b11 X
1$
b1000100010 (
b1000100010 D
b1000100010 `
b1000100010 b
b100010 #
b100010 6
b100010 \
b100010 f
b101000 *
b101000 H
b101000 a
b101000 e
b110010 A
b110010 ]
1,
#590
0,
#595
b1000 S
0J
b1000 K
b1000 L
b1000 Q
b1000 R
bx d
b1000 !
b1000 3
b1000 O
b1000 ^
b1000 c
1:
0C
b0 G
b0 P
0=
1[
b1000000001000 B
b1000000001000 Y
b1000000001000 Z
1'
b1001001100 (
b1001001100 D
b1001001100 `
b1001001100 b
b1001100 #
b1001100 6
b1001100 \
b1001100 f
b101001 *
b101001 H
b101001 a
b101001 e
0$
1,
#596
b1001000100 2
#600
0,
#605
b1100 K
b1100 L
b1100 Q
b1100 R
b1100 U
b1100 !
b1100 3
b1100 O
b1100 ^
b1100 c
bz S
18
0:
b10 G
b10 P
1=
1>
0@
0[
b11010000010 B
b11010000010 Y
b11010000010 Z
b1100 %
b1100 7
b1100 T
b100 &
b100 ?
b100 X
1$
b110000110010 (
b110000110010 D
b110000110010 `
b110000110010 b
b110010 #
b110010 6
b110010 \
b110010 f
b101010 *
b101010 H
b101010 a
b101010 e
b1001100 A
b1001100 ]
1,
#610
0,
#615
bz U
b1100 S
08
1:
b0 G
b0 P
0=
0>
1@
1[
b1000000001000 B
b1000000001000 Y
b1000000001000 Z
0'
b1100 )
b1100 E
b1100 M
b1100 N
0$
1,
#620
0,
#625
0F
0J
bz S
b1010 d
b10 K
b10 L
b10 Q
b10 R
b1010 !
b1010 3
b1010 O
b1010 ^
b1010 c
0:
1C
b1 G
b1 P
1=
0[
b1001001100000 B
b1001001100000 Y
b1001001100000 Z
b10 %
b10 7
b10 T
b11 &
b11 ?
b11 X
1$
b1000100010 (
b1000100010 D
b1000100010 `
b1000100010 b
b100010 #
b100010 6
b100010 \
b100010 f
b101011 *
b101011 H
b101011 a
b101011 e
b110010 A
b110010 ]
1,
#630
0,
#635
b1100 S
b1100 K
b1100 L
b1100 Q
b1100 R
bx d
b1100 !
b1100 3
b1100 O
b1100 ^
b1100 c
1:
0C
b0 G
b0 P
0=
1[
b1000000001000 B
b1000000001000 Y
b1000000001000 Z
b1011001010 (
b1011001010 D
b1011001010 `
b1011001010 b
b11001010 #
b11001010 6
b11001010 \
b11001010 f
b101100 *
b101100 H
b101100 a
b101100 e
0$
1,
#636
b1001011000 2
#640
0,
